<?xml version="1.0" encoding="UTF-8" standalone="no"?>
<!-- Created with Inkscape (http://www.inkscape.org/) -->

<svg
   xmlns:dc="http://purl.org/dc/elements/1.1/"
   xmlns:cc="http://creativecommons.org/ns#"
   xmlns:rdf="http://www.w3.org/1999/02/22-rdf-syntax-ns#"
   xmlns:svg="http://www.w3.org/2000/svg"
   xmlns="http://www.w3.org/2000/svg"
   xmlns:sodipodi="http://sodipodi.sourceforge.net/DTD/sodipodi-0.dtd"
   xmlns:inkscape="http://www.inkscape.org/namespaces/inkscape"
   width="1024"
   height="1024"
   viewBox="0 0 270.93333 270.93333"
   version="1.1"
   id="svg8"
   inkscape:version="0.92.4 (5da689c313, 2019-01-14)"
   sodipodi:docname="blocks.svg">
  <defs
     id="defs2" />
  <sodipodi:namedview
     id="base"
     pagecolor="#ffffff"
     bordercolor="#666666"
     borderopacity="1.0"
     inkscape:pageopacity="0.0"
     inkscape:pageshadow="2"
     inkscape:zoom="1"
     inkscape:cx="288.71702"
     inkscape:cy="742.25451"
     inkscape:document-units="px"
     inkscape:current-layer="layer1"
     showgrid="false"
     units="px"
     inkscape:window-width="1440"
     inkscape:window-height="837"
     inkscape:window-x="-8"
     inkscape:window-y="-8"
     inkscape:window-maximized="1">
    <inkscape:grid
       type="xygrid"
       id="grid814" />
  </sodipodi:namedview>
  <metadata
     id="metadata5">
    <rdf:RDF>
      <cc:Work
         rdf:about="">
        <dc:format>image/svg+xml</dc:format>
        <dc:type
           rdf:resource="http://purl.org/dc/dcmitype/StillImage" />
        <dc:title></dc:title>
      </cc:Work>
    </rdf:RDF>
  </metadata>
  <g
     inkscape:label="Camada 1"
     inkscape:groupmode="layer"
     id="layer1"
     transform="translate(0,-26.06671)">
    <path
       inkscape:connector-curvature="0"
       style="fill:#5d6c53;stroke-width:0.20436782"
       d="M 51.556025,50.559788 V 67.493123 84.426456 H 68.489358 85.422691 V 67.493123 50.559788 H 68.489358 Z"
       id="rect4828"
       inkscape:export-xdpi="96"
       inkscape:export-ydpi="96" />
    <g
       transform="translate(115.73629,-28.234817)"
       id="g5063"
       inkscape:export-xdpi="96"
       inkscape:export-ydpi="96">
      <rect
         y="78.79438"
         x="-40.897022"
         height="4.2333331"
         width="4.2333331"
         id="rect5057"
         style="fill:#00ffff;stroke-width:0.29934186" />
      <text
         id="text5061"
         y="82.173676"
         x="-40.043846"
         style="font-style:normal;font-variant:normal;font-weight:bold;font-stretch:normal;font-size:3.52777767px;line-height:1.25;font-family:Arial;-inkscape-font-specification:'Arial Bold';letter-spacing:0px;word-spacing:0px;fill:#000000;fill-opacity:1;stroke:#ffffff;stroke-width:0.79374999;stroke-linecap:round;stroke-linejoin:round;stroke-miterlimit:4;stroke-dasharray:none;stroke-opacity:1;paint-order:stroke fill markers"
         xml:space="preserve"><tspan
           style="font-style:normal;font-variant:normal;font-weight:bold;font-stretch:normal;font-size:3.52777767px;font-family:Arial;-inkscape-font-specification:'Arial Bold';stroke:#ffffff;stroke-width:0.79374999;stroke-linecap:round;stroke-linejoin:round;stroke-miterlimit:4;stroke-dasharray:none;stroke-opacity:1;paint-order:stroke fill markers"
           y="82.173676"
           x="-40.043846"
           id="tspan5059"
           sodipodi:role="line">N</tspan></text>
    </g>
    <path
       inkscape:connector-curvature="0"
       id="path4840"
       d="M 119.28938,84.426378 V 67.493045 50.559712 h -16.93334 v 16.933333 16.933333 z"
       style="fill:#668000;stroke-width:0.20436782"
       inkscape:export-xdpi="96"
       inkscape:export-ydpi="96" />
    <g
       transform="translate(155.95308,-30.351329)"
       id="g5039"
       inkscape:export-xdpi="96"
       inkscape:export-ydpi="96">
      <rect
         y="87.26104"
         x="-40.897022"
         height="4.2333331"
         width="4.2333331"
         id="rect5033"
         style="fill:#00ff00;stroke-width:0.29934186" />
      <text
         id="text5037"
         y="90.640335"
         x="-39.997337"
         style="font-style:normal;font-variant:normal;font-weight:bold;font-stretch:normal;font-size:3.52777767px;line-height:1.25;font-family:Arial;-inkscape-font-specification:'Arial Bold';letter-spacing:0px;word-spacing:0px;fill:#000000;fill-opacity:1;stroke:#ffffff;stroke-width:0.79374999;stroke-linecap:round;stroke-linejoin:round;stroke-miterlimit:4;stroke-dasharray:none;stroke-opacity:1;paint-order:stroke fill markers"
         xml:space="preserve"><tspan
           style="font-style:normal;font-variant:normal;font-weight:bold;font-stretch:normal;font-size:3.52777767px;font-family:Arial;-inkscape-font-specification:'Arial Bold';stroke:#ffffff;stroke-width:0.79374999;stroke-linecap:round;stroke-linejoin:round;stroke-miterlimit:4;stroke-dasharray:none;stroke-opacity:1;paint-order:stroke fill markers"
           y="90.640335"
           x="-39.997337"
           id="tspan5035"
           sodipodi:role="line">E</tspan></text>
    </g>
    <rect
       id="rect812"
       width="16.933332"
       height="16.933332"
       x="0.75595212"
       y="33.626228"
       style="fill:#782121;stroke-width:0.20436782"
       inkscape:export-xdpi="96"
       inkscape:export-ydpi="96" />
    <rect
       style="fill:#c83737;stroke-width:0.20436782"
       y="33.626228"
       x="17.689285"
       height="16.933332"
       width="16.933332"
       id="rect4521"
       inkscape:export-xdpi="96"
       inkscape:export-ydpi="96" />
    <rect
       id="rect4525"
       width="16.933332"
       height="16.933332"
       x="34.62262"
       y="33.626228"
       style="fill:#d35f5f;stroke-width:0.20436782"
       inkscape:export-xdpi="96"
       inkscape:export-ydpi="96" />
    <rect
       style="fill:#00ffff;stroke-width:0.29934186"
       id="rect4527"
       width="4.2333331"
       height="4.2333331"
       x="34.62262"
       y="39.976227"
       inkscape:export-xdpi="96"
       inkscape:export-ydpi="96" />
    <rect
       style="fill:#a02c2c;stroke-width:0.20436782"
       y="33.626228"
       x="51.55595"
       height="16.933332"
       width="16.933332"
       id="rect4529"
       inkscape:export-xdpi="96"
       inkscape:export-ydpi="96" />
    <rect
       y="39.976227"
       x="64.255943"
       height="4.2333331"
       width="4.2333331"
       id="rect4531"
       style="fill:#00ffff;stroke-width:0.29934186"
       inkscape:export-xdpi="96"
       inkscape:export-ydpi="96" />
    <path
       inkscape:connector-curvature="0"
       style="fill:#aa4400;stroke-width:0.20436782"
       d="m 51.555951,84.426226 v 16.933334 16.93333 H 68.489284 85.422617 V 101.35956 H 68.489284 V 84.426226 Z"
       id="rect4671"
       inkscape:export-xdpi="96"
       inkscape:export-ydpi="96" />
    <rect
       y="84.426003"
       x="57.905727"
       height="4.2333331"
       width="4.2333331"
       id="rect4673"
       style="fill:#00ffff;stroke-width:0.29934186"
       inkscape:export-xdpi="96"
       inkscape:export-ydpi="96" />
    <rect
       style="fill:#00ffff;stroke-width:0.29934186"
       id="rect4686"
       width="4.2333331"
       height="4.2333331"
       x="81.189285"
       y="107.70956"
       inkscape:export-xdpi="96"
       inkscape:export-ydpi="96" />
    <path
       inkscape:connector-curvature="0"
       style="fill:#c8ab37;stroke-width:0.20436782"
       d="m 119.28928,84.426228 v 16.933332 16.93333 h 16.93334 V 101.35956 84.426228 Z"
       id="rect4572"
       inkscape:export-xdpi="96"
       inkscape:export-ydpi="96" />
    <rect
       transform="rotate(90)"
       style="fill:#00ffff;stroke-width:0.29934186"
       id="rect4574"
       width="4.2333331"
       height="4.2333331"
       x="84.426155"
       y="-129.87271"
       inkscape:export-xdpi="96"
       inkscape:export-ydpi="96" />
    <rect
       y="-129.87271"
       x="114.05956"
       height="4.2333331"
       width="4.2333331"
       id="rect4717"
       style="fill:#00ffff;stroke-width:0.29934186"
       transform="rotate(90)"
       inkscape:export-xdpi="96"
       inkscape:export-ydpi="96" />
    <path
       style="fill:#a0892c;stroke-width:0.20436782"
       d="M 68.48935,50.559661 H 85.422683 102.35602 V 33.626327 H 85.422683 68.48935 Z"
       id="path4595"
       inkscape:connector-curvature="0"
       inkscape:export-xdpi="96"
       inkscape:export-ydpi="96" />
    <rect
       style="fill:#00ffff;stroke-width:0.29934186"
       id="rect4597"
       width="4.2333331"
       height="4.2333331"
       x="68.489273"
       y="39.976227"
       inkscape:export-xdpi="96"
       inkscape:export-ydpi="96" />
    <rect
       y="39.976227"
       x="98.122688"
       height="4.2333331"
       width="4.2333331"
       id="rect4725"
       style="fill:#00ffff;stroke-width:0.29934186"
       inkscape:export-xdpi="96"
       inkscape:export-ydpi="96" />
    <path
       id="path4684"
       d="M 119.28928,118.29289 V 101.35956 84.426225 H 102.35595 85.422617 v 16.933335 h 16.933333 v 16.93333 z"
       style="fill:#d45500;stroke-width:0.20436782"
       inkscape:connector-curvature="0"
       inkscape:export-xdpi="96"
       inkscape:export-ydpi="96" />
    <rect
       y="84.426453"
       x="108.70595"
       height="4.2333331"
       width="4.2333331"
       id="rect4694"
       style="fill:#00ffff;stroke-width:0.29934186"
       inkscape:export-xdpi="96"
       inkscape:export-ydpi="96" />
    <rect
       style="fill:#00ffff;stroke-width:0.29934186"
       id="rect4696"
       width="4.2333331"
       height="4.2333331"
       x="85.422615"
       y="90.776451"
       inkscape:export-xdpi="96"
       inkscape:export-ydpi="96" />
    <rect
       style="fill:#00ffff;stroke-width:0.29934186"
       id="rect4751"
       width="4.2333331"
       height="4.2333331"
       x="108.70595"
       y="114.05956"
       inkscape:export-xdpi="96"
       inkscape:export-ydpi="96" />
    <path
       inkscape:connector-curvature="0"
       style="fill:#ff6600;stroke-width:0.20436782"
       d="M 17.689285,84.426227 V 101.35956 H 0.75595182 v 16.93333 H 17.689285 34.622618 51.555951 V 101.35956 84.426227 H 34.622618 Z"
       id="rect4759"
       inkscape:export-xdpi="96"
       inkscape:export-ydpi="96" />
    <rect
       style="fill:#00ffff;stroke-width:0.29934186"
       id="rect4791"
       width="4.2333331"
       height="4.2333331"
       x="47.32254"
       y="90.776443"
       inkscape:export-xdpi="96"
       inkscape:export-ydpi="96" />
    <rect
       style="fill:#00ffff;stroke-width:0.29934186"
       id="rect4793"
       width="4.2333331"
       height="4.2333331"
       x="0.75587386"
       y="107.70978"
       inkscape:export-xdpi="96"
       inkscape:export-ydpi="96" />
    <rect
       style="fill:#00ffff;stroke-width:0.29934186"
       id="rect4795"
       width="4.2333331"
       height="4.2333331"
       x="40.972538"
       y="114.05978"
       inkscape:export-xdpi="96"
       inkscape:export-ydpi="96" />
    <rect
       style="fill:#782121;stroke-width:0.20436782"
       y="38.917896"
       x="-31.75"
       height="16.933332"
       width="16.933332"
       id="rect4804" />
    <rect
       y="39.673847"
       x="-40.897022"
       height="4.2333331"
       width="4.2333331"
       id="rect4806"
       style="fill:#00ffff;stroke-width:0.29934186" />
    <path
       inkscape:connector-curvature="0"
       style="fill:#2d5016;stroke-width:0.20436782"
       d="M 17.689359,50.559788 V 67.493123 84.426456 H 34.622692 51.556025 V 67.493123 50.559788 H 34.622692 Z"
       id="rect4812"
       inkscape:export-xdpi="96"
       inkscape:export-ydpi="96" />
    <rect
       style="fill:#00ffff;stroke-width:0.29934186"
       id="rect4820"
       width="4.2333331"
       height="4.2333331"
       x="17.689285"
       y="56.909561"
       inkscape:export-xdpi="96"
       inkscape:export-ydpi="96" />
    <rect
       y="73.842888"
       x="47.322617"
       height="4.2333331"
       width="4.2333331"
       id="rect4822"
       style="fill:#00ffff;stroke-width:0.29934186"
       inkscape:export-xdpi="96"
       inkscape:export-ydpi="96" />
    <rect
       y="-78.076225"
       x="51.555946"
       height="4.2333331"
       width="4.2333331"
       id="rect4836"
       style="fill:#00ffff;stroke-width:0.29934186"
       transform="scale(1,-1)"
       inkscape:export-xdpi="96"
       inkscape:export-ydpi="96" />
    <rect
       y="102.35595"
       x="-78.076233"
       height="4.2333331"
       width="4.2333331"
       id="rect4842"
       style="fill:#00ffff;stroke-width:0.29934186"
       transform="rotate(-90)"
       inkscape:export-xdpi="96"
       inkscape:export-ydpi="96" />
    <path
       style="fill:#786721;stroke-width:0.20436782"
       d="M 102.35603,84.426456 V 67.493123 50.55979 H 85.422691 v 16.933333 16.933333 z"
       id="path4870"
       inkscape:connector-curvature="0"
       inkscape:export-xdpi="96"
       inkscape:export-ydpi="96" />
    <rect
       transform="rotate(-90)"
       style="fill:#00ffff;stroke-width:0.29934186"
       id="rect4872"
       width="4.2333331"
       height="4.2333331"
       x="-84.426529"
       y="91.772591"
       inkscape:export-xdpi="96"
       inkscape:export-ydpi="96" />
    <rect
       transform="rotate(-90)"
       y="85.422691"
       x="-61.143124"
       height="4.2333331"
       width="4.2333331"
       id="rect4874"
       style="fill:#00ffff;stroke-width:0.29934186"
       inkscape:export-xdpi="96"
       inkscape:export-ydpi="96" />
    <g
       id="g4917">
      <rect
         y="78.79438"
         x="-40.897022"
         height="4.2333331"
         width="4.2333331"
         id="rect4890"
         style="fill:#00ffff;stroke-width:0.29934186" />
      <text
         id="text4894"
         y="82.173676"
         x="-40.043846"
         style="font-style:normal;font-variant:normal;font-weight:bold;font-stretch:normal;font-size:3.52777767px;line-height:1.25;font-family:Arial;-inkscape-font-specification:'Arial Bold';letter-spacing:0px;word-spacing:0px;fill:#000000;fill-opacity:1;stroke:#ffffff;stroke-width:0.79374999;stroke-miterlimit:4;stroke-dasharray:none;stroke-opacity:1;paint-order:stroke fill markers;stroke-linecap:round;stroke-linejoin:round;"
         xml:space="preserve"><tspan
           style="font-style:normal;font-variant:normal;font-weight:bold;font-stretch:normal;font-size:3.52777767px;font-family:Arial;-inkscape-font-specification:'Arial Bold';stroke-width:0.79374999;stroke-miterlimit:4;stroke-dasharray:none;stroke:#ffffff;stroke-opacity:1;paint-order:stroke fill markers;stroke-linecap:round;stroke-linejoin:round;"
           y="82.173676"
           x="-40.043846"
           id="tspan4892"
           sodipodi:role="line">N</tspan></text>
    </g>
    <g
       id="g4922">
      <rect
         style="fill:#ff0000;stroke-width:0.29934186"
         id="rect4908"
         width="4.2333331"
         height="4.2333331"
         x="-40.897022"
         y="83.02771" />
      <text
         id="text4898"
         y="86.406143"
         x="-39.934464"
         style="font-style:normal;font-variant:normal;font-weight:bold;font-stretch:normal;font-size:3.52777767px;line-height:1.25;font-family:Arial;-inkscape-font-specification:'Arial Bold';letter-spacing:0px;word-spacing:0px;fill:#000000;fill-opacity:1;stroke:#ffffff;stroke-width:0.79374999;stroke-miterlimit:4;stroke-dasharray:none;stroke-opacity:1;paint-order:stroke fill markers;stroke-linecap:round;stroke-linejoin:round;"
         xml:space="preserve"><tspan
           style="font-style:normal;font-variant:normal;font-weight:bold;font-stretch:normal;font-size:3.52777767px;font-family:Arial;-inkscape-font-specification:'Arial Bold';stroke-width:0.79374999;stroke-miterlimit:4;stroke-dasharray:none;stroke:#ffffff;stroke-opacity:1;paint-order:stroke fill markers;stroke-linecap:round;stroke-linejoin:round;"
           y="86.406143"
           x="-39.934464"
           id="tspan4896"
           sodipodi:role="line">S</tspan></text>
    </g>
    <g
       id="g4927">
      <rect
         y="87.26104"
         x="-40.897022"
         height="4.2333331"
         width="4.2333331"
         id="rect4910"
         style="fill:#00ff00;stroke-width:0.29934186" />
      <text
         id="text4902"
         y="90.640335"
         x="-39.997337"
         style="font-style:normal;font-variant:normal;font-weight:bold;font-stretch:normal;font-size:3.52777767px;line-height:1.25;font-family:Arial;-inkscape-font-specification:'Arial Bold';letter-spacing:0px;word-spacing:0px;fill:#000000;fill-opacity:1;stroke:#ffffff;stroke-width:0.79374999;stroke-miterlimit:4;stroke-dasharray:none;stroke-opacity:1;paint-order:stroke fill markers;stroke-linecap:round;stroke-linejoin:round;"
         xml:space="preserve"><tspan
           style="font-style:normal;font-variant:normal;font-weight:bold;font-stretch:normal;font-size:3.52777767px;font-family:Arial;-inkscape-font-specification:'Arial Bold';stroke-width:0.79374999;stroke-miterlimit:4;stroke-dasharray:none;stroke:#ffffff;stroke-opacity:1;paint-order:stroke fill markers;stroke-linecap:round;stroke-linejoin:round;"
           y="90.640335"
           x="-39.997337"
           id="tspan4900"
           sodipodi:role="line">E</tspan></text>
    </g>
    <g
       id="g4932">
      <rect
         style="fill:#ff00ff;stroke-width:0.52916666;stroke-miterlimit:4;stroke-dasharray:none"
         id="rect4912"
         width="4.2333331"
         height="4.2333331"
         x="-40.897022"
         y="91.49437" />
      <text
         id="text4906"
         y="94.873665"
         x="-40.449505"
         style="font-style:normal;font-variant:normal;font-weight:bold;font-stretch:normal;font-size:3.52777767px;line-height:1.25;font-family:Arial;-inkscape-font-specification:'Arial Bold';letter-spacing:0px;word-spacing:0px;fill:#000000;fill-opacity:1;stroke:#ffffff;stroke-width:0.79374999;stroke-miterlimit:4;stroke-dasharray:none;stroke-opacity:1;paint-order:stroke fill markers;stroke-linecap:round;stroke-linejoin:round;"
         xml:space="preserve"><tspan
           style="font-style:normal;font-variant:normal;font-weight:bold;font-stretch:normal;font-size:3.52777767px;font-family:Arial;-inkscape-font-specification:'Arial Bold';stroke-width:0.79374999;stroke-miterlimit:4;stroke-dasharray:none;stroke:#ffffff;stroke-opacity:1;paint-order:stroke fill markers;stroke-linecap:round;stroke-linejoin:round;"
           y="94.873665"
           x="-40.449505"
           id="tspan4904"
           sodipodi:role="line">W</tspan></text>
    </g>
    <g
       id="g4973"
       transform="translate(48.002974,-45.168152)"
       inkscape:export-xdpi="96"
       inkscape:export-ydpi="96">
      <rect
         style="fill:#00ffff;stroke-width:0.29934186"
         id="rect4967"
         width="4.2333331"
         height="4.2333331"
         x="-40.897022"
         y="78.79438" />
      <text
         xml:space="preserve"
         style="font-style:normal;font-variant:normal;font-weight:bold;font-stretch:normal;font-size:3.52777767px;line-height:1.25;font-family:Arial;-inkscape-font-specification:'Arial Bold';letter-spacing:0px;word-spacing:0px;fill:#000000;fill-opacity:1;stroke:#ffffff;stroke-width:0.79374999;stroke-linecap:round;stroke-linejoin:round;stroke-miterlimit:4;stroke-dasharray:none;stroke-opacity:1;paint-order:stroke fill markers"
         x="-40.043846"
         y="82.173676"
         id="text4971"><tspan
           sodipodi:role="line"
           id="tspan4969"
           x="-40.043846"
           y="82.173676"
           style="font-style:normal;font-variant:normal;font-weight:bold;font-stretch:normal;font-size:3.52777767px;font-family:Arial;-inkscape-font-specification:'Arial Bold';stroke:#ffffff;stroke-width:0.79374999;stroke-linecap:round;stroke-linejoin:round;stroke-miterlimit:4;stroke-dasharray:none;stroke-opacity:1;paint-order:stroke fill markers">N</tspan></text>
    </g>
    <g
       id="g4981"
       transform="translate(64.936307,-36.701482)"
       inkscape:export-xdpi="96"
       inkscape:export-ydpi="96">
      <rect
         y="83.02771"
         x="-40.897022"
         height="4.2333331"
         width="4.2333331"
         id="rect4975"
         style="fill:#ff0000;stroke-width:0.29934186" />
      <text
         xml:space="preserve"
         style="font-style:normal;font-variant:normal;font-weight:bold;font-stretch:normal;font-size:3.52777767px;line-height:1.25;font-family:Arial;-inkscape-font-specification:'Arial Bold';letter-spacing:0px;word-spacing:0px;fill:#000000;fill-opacity:1;stroke:#ffffff;stroke-width:0.79374999;stroke-linecap:round;stroke-linejoin:round;stroke-miterlimit:4;stroke-dasharray:none;stroke-opacity:1;paint-order:stroke fill markers"
         x="-39.934464"
         y="86.406143"
         id="text4979"><tspan
           sodipodi:role="line"
           id="tspan4977"
           x="-39.934464"
           y="86.406143"
           style="font-style:normal;font-variant:normal;font-weight:bold;font-stretch:normal;font-size:3.52777767px;font-family:Arial;-inkscape-font-specification:'Arial Bold';stroke:#ffffff;stroke-width:0.79374999;stroke-linecap:round;stroke-linejoin:round;stroke-miterlimit:4;stroke-dasharray:none;stroke-opacity:1;paint-order:stroke fill markers">S</tspan></text>
    </g>
    <g
       id="g4989"
       transform="translate(105.15297,-47.284813)"
       inkscape:export-xdpi="96"
       inkscape:export-ydpi="96">
      <rect
         style="fill:#00ff00;stroke-width:0.29934186"
         id="rect4983"
         width="4.2333331"
         height="4.2333331"
         x="-40.897022"
         y="87.26104" />
      <text
         xml:space="preserve"
         style="font-style:normal;font-variant:normal;font-weight:bold;font-stretch:normal;font-size:3.52777767px;line-height:1.25;font-family:Arial;-inkscape-font-specification:'Arial Bold';letter-spacing:0px;word-spacing:0px;fill:#000000;fill-opacity:1;stroke:#ffffff;stroke-width:0.79374999;stroke-linecap:round;stroke-linejoin:round;stroke-miterlimit:4;stroke-dasharray:none;stroke-opacity:1;paint-order:stroke fill markers"
         x="-39.997337"
         y="90.640335"
         id="text4987"><tspan
           sodipodi:role="line"
           id="tspan4985"
           x="-39.997337"
           y="90.640335"
           style="font-style:normal;font-variant:normal;font-weight:bold;font-stretch:normal;font-size:3.52777767px;font-family:Arial;-inkscape-font-specification:'Arial Bold';stroke:#ffffff;stroke-width:0.79374999;stroke-linecap:round;stroke-linejoin:round;stroke-miterlimit:4;stroke-dasharray:none;stroke-opacity:1;paint-order:stroke fill markers">E</tspan></text>
    </g>
    <g
       id="g4997"
       transform="translate(75.519642,-51.518143)"
       inkscape:export-xdpi="96"
       inkscape:export-ydpi="96">
      <rect
         y="91.49437"
         x="-40.897022"
         height="4.2333331"
         width="4.2333331"
         id="rect4991"
         style="fill:#ff00ff;stroke-width:0.52916664;stroke-miterlimit:4;stroke-dasharray:none" />
      <text
         xml:space="preserve"
         style="font-style:normal;font-variant:normal;font-weight:bold;font-stretch:normal;font-size:3.52777767px;line-height:1.25;font-family:Arial;-inkscape-font-specification:'Arial Bold';letter-spacing:0px;word-spacing:0px;fill:#000000;fill-opacity:1;stroke:#ffffff;stroke-width:0.79374999;stroke-linecap:round;stroke-linejoin:round;stroke-miterlimit:4;stroke-dasharray:none;stroke-opacity:1;paint-order:stroke fill markers"
         x="-40.449505"
         y="94.873665"
         id="text4995"><tspan
           sodipodi:role="line"
           id="tspan4993"
           x="-40.449505"
           y="94.873665"
           style="font-style:normal;font-variant:normal;font-weight:bold;font-stretch:normal;font-size:3.52777767px;font-family:Arial;-inkscape-font-specification:'Arial Bold';stroke:#ffffff;stroke-width:0.79374999;stroke-linecap:round;stroke-linejoin:round;stroke-miterlimit:4;stroke-dasharray:none;stroke-opacity:1;paint-order:stroke fill markers">W</tspan></text>
    </g>
    <g
       transform="translate(109.3863,-51.518143)"
       id="g5005"
       inkscape:export-xdpi="96"
       inkscape:export-ydpi="96">
      <rect
         style="fill:#ff00ff;stroke-width:0.52916664;stroke-miterlimit:4;stroke-dasharray:none"
         id="rect4999"
         width="4.2333331"
         height="4.2333331"
         x="-40.897022"
         y="91.49437" />
      <text
         id="text5003"
         y="94.873665"
         x="-40.449505"
         style="font-style:normal;font-variant:normal;font-weight:bold;font-stretch:normal;font-size:3.52777767px;line-height:1.25;font-family:Arial;-inkscape-font-specification:'Arial Bold';letter-spacing:0px;word-spacing:0px;fill:#000000;fill-opacity:1;stroke:#ffffff;stroke-width:0.79374999;stroke-linecap:round;stroke-linejoin:round;stroke-miterlimit:4;stroke-dasharray:none;stroke-opacity:1;paint-order:stroke fill markers"
         xml:space="preserve"><tspan
           style="font-style:normal;font-variant:normal;font-weight:bold;font-stretch:normal;font-size:3.52777767px;font-family:Arial;-inkscape-font-specification:'Arial Bold';stroke:#ffffff;stroke-width:0.79374999;stroke-linecap:round;stroke-linejoin:round;stroke-miterlimit:4;stroke-dasharray:none;stroke-opacity:1;paint-order:stroke fill markers"
           y="94.873665"
           x="-40.449505"
           id="tspan5001"
           sodipodi:role="line">W</tspan></text>
    </g>
    <g
       transform="translate(139.01971,-47.284813)"
       id="g5013"
       inkscape:export-xdpi="96"
       inkscape:export-ydpi="96">
      <rect
         y="87.26104"
         x="-40.897022"
         height="4.2333331"
         width="4.2333331"
         id="rect5007"
         style="fill:#00ff00;stroke-width:0.29934186" />
      <text
         id="text5011"
         y="90.640335"
         x="-39.997337"
         style="font-style:normal;font-variant:normal;font-weight:bold;font-stretch:normal;font-size:3.52777767px;line-height:1.25;font-family:Arial;-inkscape-font-specification:'Arial Bold';letter-spacing:0px;word-spacing:0px;fill:#000000;fill-opacity:1;stroke:#ffffff;stroke-width:0.79374999;stroke-linecap:round;stroke-linejoin:round;stroke-miterlimit:4;stroke-dasharray:none;stroke-opacity:1;paint-order:stroke fill markers"
         xml:space="preserve"><tspan
           style="font-style:normal;font-variant:normal;font-weight:bold;font-stretch:normal;font-size:3.52777767px;font-family:Arial;-inkscape-font-specification:'Arial Bold';stroke:#ffffff;stroke-width:0.79374999;stroke-linecap:round;stroke-linejoin:round;stroke-miterlimit:4;stroke-dasharray:none;stroke-opacity:1;paint-order:stroke fill markers"
           y="90.640335"
           x="-39.997337"
           id="tspan5009"
           sodipodi:role="line">E</tspan></text>
    </g>
    <g
       id="g5021"
       transform="translate(58.586308,-34.584808)"
       inkscape:export-xdpi="96"
       inkscape:export-ydpi="96">
      <rect
         y="91.49437"
         x="-40.897022"
         height="4.2333331"
         width="4.2333331"
         id="rect5015"
         style="fill:#ff00ff;stroke-width:0.52916664;stroke-miterlimit:4;stroke-dasharray:none" />
      <text
         xml:space="preserve"
         style="font-style:normal;font-variant:normal;font-weight:bold;font-stretch:normal;font-size:3.52777767px;line-height:1.25;font-family:Arial;-inkscape-font-specification:'Arial Bold';letter-spacing:0px;word-spacing:0px;fill:#000000;fill-opacity:1;stroke:#ffffff;stroke-width:0.79374999;stroke-linecap:round;stroke-linejoin:round;stroke-miterlimit:4;stroke-dasharray:none;stroke-opacity:1;paint-order:stroke fill markers"
         x="-40.449505"
         y="94.873665"
         id="text5019"><tspan
           sodipodi:role="line"
           id="tspan5017"
           x="-40.449505"
           y="94.873665"
           style="font-style:normal;font-variant:normal;font-weight:bold;font-stretch:normal;font-size:3.52777767px;font-family:Arial;-inkscape-font-specification:'Arial Bold';stroke:#ffffff;stroke-width:0.79374999;stroke-linecap:round;stroke-linejoin:round;stroke-miterlimit:4;stroke-dasharray:none;stroke-opacity:1;paint-order:stroke fill markers">W</tspan></text>
    </g>
    <g
       id="g5029"
       transform="translate(88.219639,-13.418152)"
       inkscape:export-xdpi="96"
       inkscape:export-ydpi="96">
      <rect
         style="fill:#00ff00;stroke-width:0.29934186"
         id="rect5023"
         width="4.2333331"
         height="4.2333331"
         x="-40.897022"
         y="87.26104" />
      <text
         xml:space="preserve"
         style="font-style:normal;font-variant:normal;font-weight:bold;font-stretch:normal;font-size:3.52777767px;line-height:1.25;font-family:Arial;-inkscape-font-specification:'Arial Bold';letter-spacing:0px;word-spacing:0px;fill:#000000;fill-opacity:1;stroke:#ffffff;stroke-width:0.79374999;stroke-linecap:round;stroke-linejoin:round;stroke-miterlimit:4;stroke-dasharray:none;stroke-opacity:1;paint-order:stroke fill markers"
         x="-39.997337"
         y="90.640335"
         id="text5027"><tspan
           sodipodi:role="line"
           id="tspan5025"
           x="-39.997337"
           y="90.640335"
           style="font-style:normal;font-variant:normal;font-weight:bold;font-stretch:normal;font-size:3.52777767px;font-family:Arial;-inkscape-font-specification:'Arial Bold';stroke:#ffffff;stroke-width:0.79374999;stroke-linecap:round;stroke-linejoin:round;stroke-miterlimit:4;stroke-dasharray:none;stroke-opacity:1;paint-order:stroke fill markers">E</tspan></text>
    </g>
    <g
       transform="translate(92.452969,-17.651477)"
       id="g5047"
       inkscape:export-xdpi="96"
       inkscape:export-ydpi="96">
      <rect
         style="fill:#ff00ff;stroke-width:0.52916664;stroke-miterlimit:4;stroke-dasharray:none"
         id="rect5041"
         width="4.2333331"
         height="4.2333331"
         x="-40.897022"
         y="91.49437" />
      <text
         id="text5045"
         y="94.873665"
         x="-40.449505"
         style="font-style:normal;font-variant:normal;font-weight:bold;font-stretch:normal;font-size:3.52777767px;line-height:1.25;font-family:Arial;-inkscape-font-specification:'Arial Bold';letter-spacing:0px;word-spacing:0px;fill:#000000;fill-opacity:1;stroke:#ffffff;stroke-width:0.79374999;stroke-linecap:round;stroke-linejoin:round;stroke-miterlimit:4;stroke-dasharray:none;stroke-opacity:1;paint-order:stroke fill markers"
         xml:space="preserve"><tspan
           style="font-style:normal;font-variant:normal;font-weight:bold;font-stretch:normal;font-size:3.52777767px;font-family:Arial;-inkscape-font-specification:'Arial Bold';stroke:#ffffff;stroke-width:0.79374999;stroke-linecap:round;stroke-linejoin:round;stroke-miterlimit:4;stroke-dasharray:none;stroke-opacity:1;paint-order:stroke fill markers"
           y="94.873665"
           x="-40.449505"
           id="tspan5043"
           sodipodi:role="line">W</tspan></text>
    </g>
    <g
       id="g5055"
       transform="translate(126.31971,-34.584579)"
       inkscape:export-xdpi="96"
       inkscape:export-ydpi="96">
      <rect
         y="91.49437"
         x="-40.897022"
         height="4.2333331"
         width="4.2333331"
         id="rect5049"
         style="fill:#ff00ff;stroke-width:0.52916664;stroke-miterlimit:4;stroke-dasharray:none" />
      <text
         xml:space="preserve"
         style="font-style:normal;font-variant:normal;font-weight:bold;font-stretch:normal;font-size:3.52777767px;line-height:1.25;font-family:Arial;-inkscape-font-specification:'Arial Bold';letter-spacing:0px;word-spacing:0px;fill:#000000;fill-opacity:1;stroke:#ffffff;stroke-width:0.79374999;stroke-linecap:round;stroke-linejoin:round;stroke-miterlimit:4;stroke-dasharray:none;stroke-opacity:1;paint-order:stroke fill markers"
         x="-40.449505"
         y="94.873665"
         id="text5053"><tspan
           sodipodi:role="line"
           id="tspan5051"
           x="-40.449505"
           y="94.873665"
           style="font-style:normal;font-variant:normal;font-weight:bold;font-stretch:normal;font-size:3.52777767px;font-family:Arial;-inkscape-font-specification:'Arial Bold';stroke:#ffffff;stroke-width:0.79374999;stroke-linecap:round;stroke-linejoin:round;stroke-miterlimit:4;stroke-dasharray:none;stroke-opacity:1;paint-order:stroke fill markers">W</tspan></text>
    </g>
    <g
       transform="translate(143.25297,-17.65147)"
       id="g5071"
       inkscape:export-xdpi="96"
       inkscape:export-ydpi="96">
      <rect
         style="fill:#ff00ff;stroke-width:0.52916664;stroke-miterlimit:4;stroke-dasharray:none"
         id="rect5065"
         width="4.2333331"
         height="4.2333331"
         x="-40.897022"
         y="91.49437" />
      <text
         id="text5069"
         y="94.873665"
         x="-40.449505"
         style="font-style:normal;font-variant:normal;font-weight:bold;font-stretch:normal;font-size:3.52777767px;line-height:1.25;font-family:Arial;-inkscape-font-specification:'Arial Bold';letter-spacing:0px;word-spacing:0px;fill:#000000;fill-opacity:1;stroke:#ffffff;stroke-width:0.79374999;stroke-linecap:round;stroke-linejoin:round;stroke-miterlimit:4;stroke-dasharray:none;stroke-opacity:1;paint-order:stroke fill markers"
         xml:space="preserve"><tspan
           style="font-style:normal;font-variant:normal;font-weight:bold;font-stretch:normal;font-size:3.52777767px;font-family:Arial;-inkscape-font-specification:'Arial Bold';stroke:#ffffff;stroke-width:0.79374999;stroke-linecap:round;stroke-linejoin:round;stroke-miterlimit:4;stroke-dasharray:none;stroke-opacity:1;paint-order:stroke fill markers"
           y="94.873665"
           x="-40.449505"
           id="tspan5067"
           sodipodi:role="line">W</tspan></text>
    </g>
    <g
       transform="translate(132.66961,-2.8345141)"
       id="g5079"
       inkscape:export-xdpi="96"
       inkscape:export-ydpi="96">
      <rect
         style="fill:#ff0000;stroke-width:0.29934186"
         id="rect5073"
         width="4.2333331"
         height="4.2333331"
         x="-40.897022"
         y="83.02771" />
      <text
         id="text5077"
         y="86.406143"
         x="-39.934464"
         style="font-style:normal;font-variant:normal;font-weight:bold;font-stretch:normal;font-size:3.52777767px;line-height:1.25;font-family:Arial;-inkscape-font-specification:'Arial Bold';letter-spacing:0px;word-spacing:0px;fill:#000000;fill-opacity:1;stroke:#ffffff;stroke-width:0.79374999;stroke-linecap:round;stroke-linejoin:round;stroke-miterlimit:4;stroke-dasharray:none;stroke-opacity:1;paint-order:stroke fill markers"
         xml:space="preserve"><tspan
           style="font-style:normal;font-variant:normal;font-weight:bold;font-stretch:normal;font-size:3.52777767px;font-family:Arial;-inkscape-font-specification:'Arial Bold';stroke:#ffffff;stroke-width:0.79374999;stroke-linecap:round;stroke-linejoin:round;stroke-miterlimit:4;stroke-dasharray:none;stroke-opacity:1;paint-order:stroke fill markers"
           y="86.406143"
           x="-39.934464"
           id="tspan5075"
           sodipodi:role="line">S</tspan></text>
    </g>
    <g
       id="g5087"
       transform="translate(41.652896,16.215408)"
       inkscape:export-xdpi="96"
       inkscape:export-ydpi="96">
      <rect
         y="91.49437"
         x="-40.897022"
         height="4.2333331"
         width="4.2333331"
         id="rect5081"
         style="fill:#ff00ff;stroke-width:0.52916664;stroke-miterlimit:4;stroke-dasharray:none" />
      <text
         xml:space="preserve"
         style="font-style:normal;font-variant:normal;font-weight:bold;font-stretch:normal;font-size:3.52777767px;line-height:1.25;font-family:Arial;-inkscape-font-specification:'Arial Bold';letter-spacing:0px;word-spacing:0px;fill:#000000;fill-opacity:1;stroke:#ffffff;stroke-width:0.79374999;stroke-linecap:round;stroke-linejoin:round;stroke-miterlimit:4;stroke-dasharray:none;stroke-opacity:1;paint-order:stroke fill markers"
         x="-40.449505"
         y="94.873665"
         id="text5085"><tspan
           sodipodi:role="line"
           id="tspan5083"
           x="-40.449505"
           y="94.873665"
           style="font-style:normal;font-variant:normal;font-weight:bold;font-stretch:normal;font-size:3.52777767px;font-family:Arial;-inkscape-font-specification:'Arial Bold';stroke:#ffffff;stroke-width:0.79374999;stroke-linecap:round;stroke-linejoin:round;stroke-miterlimit:4;stroke-dasharray:none;stroke-opacity:1;paint-order:stroke fill markers">W</tspan></text>
    </g>
    <g
       id="g5095"
       transform="translate(81.86956,31.032066)"
       inkscape:export-xdpi="96"
       inkscape:export-ydpi="96">
      <rect
         y="83.02771"
         x="-40.897022"
         height="4.2333331"
         width="4.2333331"
         id="rect5089"
         style="fill:#ff0000;stroke-width:0.29934186" />
      <text
         xml:space="preserve"
         style="font-style:normal;font-variant:normal;font-weight:bold;font-stretch:normal;font-size:3.52777767px;line-height:1.25;font-family:Arial;-inkscape-font-specification:'Arial Bold';letter-spacing:0px;word-spacing:0px;fill:#000000;fill-opacity:1;stroke:#ffffff;stroke-width:0.79374999;stroke-linecap:round;stroke-linejoin:round;stroke-miterlimit:4;stroke-dasharray:none;stroke-opacity:1;paint-order:stroke fill markers"
         x="-39.934464"
         y="86.406143"
         id="text5093"><tspan
           sodipodi:role="line"
           id="tspan5091"
           x="-39.934464"
           y="86.406143"
           style="font-style:normal;font-variant:normal;font-weight:bold;font-stretch:normal;font-size:3.52777767px;font-family:Arial;-inkscape-font-specification:'Arial Bold';stroke:#ffffff;stroke-width:0.79374999;stroke-linecap:round;stroke-linejoin:round;stroke-miterlimit:4;stroke-dasharray:none;stroke-opacity:1;paint-order:stroke fill markers">S</tspan></text>
    </g>
    <g
       transform="translate(149.60297,31.031853)"
       id="g5103"
       inkscape:export-xdpi="96"
       inkscape:export-ydpi="96">
      <rect
         style="fill:#ff0000;stroke-width:0.29934186"
         id="rect5097"
         width="4.2333331"
         height="4.2333331"
         x="-40.897022"
         y="83.02771" />
      <text
         id="text5101"
         y="86.406143"
         x="-39.934464"
         style="font-style:normal;font-variant:normal;font-weight:bold;font-stretch:normal;font-size:3.52777767px;line-height:1.25;font-family:Arial;-inkscape-font-specification:'Arial Bold';letter-spacing:0px;word-spacing:0px;fill:#000000;fill-opacity:1;stroke:#ffffff;stroke-width:0.79374999;stroke-linecap:round;stroke-linejoin:round;stroke-miterlimit:4;stroke-dasharray:none;stroke-opacity:1;paint-order:stroke fill markers"
         xml:space="preserve"><tspan
           style="font-style:normal;font-variant:normal;font-weight:bold;font-stretch:normal;font-size:3.52777767px;font-family:Arial;-inkscape-font-specification:'Arial Bold';stroke:#ffffff;stroke-width:0.79374999;stroke-linecap:round;stroke-linejoin:round;stroke-miterlimit:4;stroke-dasharray:none;stroke-opacity:1;paint-order:stroke fill markers"
           y="86.406143"
           x="-39.934464"
           id="tspan5099"
           sodipodi:role="line">S</tspan></text>
    </g>
    <g
       id="g5111"
       transform="translate(166.5364,31.031853)"
       inkscape:export-xdpi="96"
       inkscape:export-ydpi="96">
      <rect
         y="83.02771"
         x="-40.897022"
         height="4.2333331"
         width="4.2333331"
         id="rect5105"
         style="fill:#ff0000;stroke-width:0.29934186" />
      <text
         xml:space="preserve"
         style="font-style:normal;font-variant:normal;font-weight:bold;font-stretch:normal;font-size:3.52777767px;line-height:1.25;font-family:Arial;-inkscape-font-specification:'Arial Bold';letter-spacing:0px;word-spacing:0px;fill:#000000;fill-opacity:1;stroke:#ffffff;stroke-width:0.79374999;stroke-linecap:round;stroke-linejoin:round;stroke-miterlimit:4;stroke-dasharray:none;stroke-opacity:1;paint-order:stroke fill markers"
         x="-39.934464"
         y="86.406143"
         id="text5109"><tspan
           sodipodi:role="line"
           id="tspan5107"
           x="-39.934464"
           y="86.406143"
           style="font-style:normal;font-variant:normal;font-weight:bold;font-stretch:normal;font-size:3.52777767px;font-family:Arial;-inkscape-font-specification:'Arial Bold';stroke:#ffffff;stroke-width:0.79374999;stroke-linecap:round;stroke-linejoin:round;stroke-miterlimit:4;stroke-dasharray:none;stroke-opacity:1;paint-order:stroke fill markers">S</tspan></text>
    </g>
    <g
       id="g5119"
       transform="translate(149.60297,5.6320724)"
       inkscape:export-xdpi="96"
       inkscape:export-ydpi="96">
      <rect
         style="fill:#00ffff;stroke-width:0.29934186"
         id="rect5113"
         width="4.2333331"
         height="4.2333331"
         x="-40.897022"
         y="78.79438" />
      <text
         xml:space="preserve"
         style="font-style:normal;font-variant:normal;font-weight:bold;font-stretch:normal;font-size:3.52777767px;line-height:1.25;font-family:Arial;-inkscape-font-specification:'Arial Bold';letter-spacing:0px;word-spacing:0px;fill:#000000;fill-opacity:1;stroke:#ffffff;stroke-width:0.79374999;stroke-linecap:round;stroke-linejoin:round;stroke-miterlimit:4;stroke-dasharray:none;stroke-opacity:1;paint-order:stroke fill markers"
         x="-40.043846"
         y="82.173676"
         id="text5117"><tspan
           sodipodi:role="line"
           id="tspan5115"
           x="-40.043846"
           y="82.173676"
           style="font-style:normal;font-variant:normal;font-weight:bold;font-stretch:normal;font-size:3.52777767px;font-family:Arial;-inkscape-font-specification:'Arial Bold';stroke:#ffffff;stroke-width:0.79374999;stroke-linecap:round;stroke-linejoin:round;stroke-miterlimit:4;stroke-dasharray:none;stroke-opacity:1;paint-order:stroke fill markers">N</tspan></text>
    </g>
    <g
       transform="translate(166.5364,5.6317749)"
       id="g5127"
       inkscape:export-xdpi="96"
       inkscape:export-ydpi="96">
      <rect
         y="78.79438"
         x="-40.897022"
         height="4.2333331"
         width="4.2333331"
         id="rect5121"
         style="fill:#00ffff;stroke-width:0.29934186" />
      <text
         id="text5125"
         y="82.173676"
         x="-40.043846"
         style="font-style:normal;font-variant:normal;font-weight:bold;font-stretch:normal;font-size:3.52777767px;line-height:1.25;font-family:Arial;-inkscape-font-specification:'Arial Bold';letter-spacing:0px;word-spacing:0px;fill:#000000;fill-opacity:1;stroke:#ffffff;stroke-width:0.79374999;stroke-linecap:round;stroke-linejoin:round;stroke-miterlimit:4;stroke-dasharray:none;stroke-opacity:1;paint-order:stroke fill markers"
         xml:space="preserve"><tspan
           style="font-style:normal;font-variant:normal;font-weight:bold;font-stretch:normal;font-size:3.52777767px;font-family:Arial;-inkscape-font-specification:'Arial Bold';stroke:#ffffff;stroke-width:0.79374999;stroke-linecap:round;stroke-linejoin:round;stroke-miterlimit:4;stroke-dasharray:none;stroke-opacity:1;paint-order:stroke fill markers"
           y="82.173676"
           x="-40.043846"
           id="tspan5123"
           sodipodi:role="line">N</tspan></text>
    </g>
    <g
       id="g5135"
       transform="translate(126.31964,-0.7179184)"
       inkscape:export-xdpi="96"
       inkscape:export-ydpi="96">
      <rect
         y="91.49437"
         x="-40.897022"
         height="4.2333331"
         width="4.2333331"
         id="rect5129"
         style="fill:#ff00ff;stroke-width:0.52916664;stroke-miterlimit:4;stroke-dasharray:none" />
      <text
         xml:space="preserve"
         style="font-style:normal;font-variant:normal;font-weight:bold;font-stretch:normal;font-size:3.52777767px;line-height:1.25;font-family:Arial;-inkscape-font-specification:'Arial Bold';letter-spacing:0px;word-spacing:0px;fill:#000000;fill-opacity:1;stroke:#ffffff;stroke-width:0.79374999;stroke-linecap:round;stroke-linejoin:round;stroke-miterlimit:4;stroke-dasharray:none;stroke-opacity:1;paint-order:stroke fill markers"
         x="-40.449505"
         y="94.873665"
         id="text5133"><tspan
           sodipodi:role="line"
           id="tspan5131"
           x="-40.449505"
           y="94.873665"
           style="font-style:normal;font-variant:normal;font-weight:bold;font-stretch:normal;font-size:3.52777767px;font-family:Arial;-inkscape-font-specification:'Arial Bold';stroke:#ffffff;stroke-width:0.79374999;stroke-linecap:round;stroke-linejoin:round;stroke-miterlimit:4;stroke-dasharray:none;stroke-opacity:1;paint-order:stroke fill markers">W</tspan></text>
    </g>
    <g
       id="g5151"
       transform="translate(98.80275,5.6316223)"
       inkscape:export-xdpi="96"
       inkscape:export-ydpi="96">
      <rect
         style="fill:#00ffff;stroke-width:0.29934186"
         id="rect5145"
         width="4.2333331"
         height="4.2333331"
         x="-40.897022"
         y="78.79438" />
      <text
         xml:space="preserve"
         style="font-style:normal;font-variant:normal;font-weight:bold;font-stretch:normal;font-size:3.52777767px;line-height:1.25;font-family:Arial;-inkscape-font-specification:'Arial Bold';letter-spacing:0px;word-spacing:0px;fill:#000000;fill-opacity:1;stroke:#ffffff;stroke-width:0.79374999;stroke-linecap:round;stroke-linejoin:round;stroke-miterlimit:4;stroke-dasharray:none;stroke-opacity:1;paint-order:stroke fill markers"
         x="-40.043846"
         y="82.173676"
         id="text5149"><tspan
           sodipodi:role="line"
           id="tspan5147"
           x="-40.043846"
           y="82.173676"
           style="font-style:normal;font-variant:normal;font-weight:bold;font-stretch:normal;font-size:3.52777767px;font-family:Arial;-inkscape-font-specification:'Arial Bold';stroke:#ffffff;stroke-width:0.79374999;stroke-linecap:round;stroke-linejoin:round;stroke-miterlimit:4;stroke-dasharray:none;stroke-opacity:1;paint-order:stroke fill markers">N</tspan></text>
    </g>
    <g
       id="g5159"
       transform="translate(88.219563,3.5154037)"
       inkscape:export-xdpi="96"
       inkscape:export-ydpi="96">
      <rect
         style="fill:#00ff00;stroke-width:0.29934186"
         id="rect5153"
         width="4.2333331"
         height="4.2333331"
         x="-40.897022"
         y="87.26104" />
      <text
         xml:space="preserve"
         style="font-style:normal;font-variant:normal;font-weight:bold;font-stretch:normal;font-size:3.52777767px;line-height:1.25;font-family:Arial;-inkscape-font-specification:'Arial Bold';letter-spacing:0px;word-spacing:0px;fill:#000000;fill-opacity:1;stroke:#ffffff;stroke-width:0.79374999;stroke-linecap:round;stroke-linejoin:round;stroke-miterlimit:4;stroke-dasharray:none;stroke-opacity:1;paint-order:stroke fill markers"
         x="-39.997337"
         y="90.640335"
         id="text5157"><tspan
           sodipodi:role="line"
           id="tspan5155"
           x="-39.997337"
           y="90.640335"
           style="font-style:normal;font-variant:normal;font-weight:bold;font-stretch:normal;font-size:3.52777767px;font-family:Arial;-inkscape-font-specification:'Arial Bold';stroke:#ffffff;stroke-width:0.79374999;stroke-linecap:round;stroke-linejoin:round;stroke-miterlimit:4;stroke-dasharray:none;stroke-opacity:1;paint-order:stroke fill markers">E</tspan></text>
    </g>
    <g
       id="g5167"
       transform="translate(122.08631,20.448517)"
       inkscape:export-xdpi="96"
       inkscape:export-ydpi="96">
      <rect
         style="fill:#00ff00;stroke-width:0.29934186"
         id="rect5161"
         width="4.2333331"
         height="4.2333331"
         x="-40.897022"
         y="87.26104" />
      <text
         xml:space="preserve"
         style="font-style:normal;font-variant:normal;font-weight:bold;font-stretch:normal;font-size:3.52777767px;line-height:1.25;font-family:Arial;-inkscape-font-specification:'Arial Bold';letter-spacing:0px;word-spacing:0px;fill:#000000;fill-opacity:1;stroke:#ffffff;stroke-width:0.79374999;stroke-linecap:round;stroke-linejoin:round;stroke-miterlimit:4;stroke-dasharray:none;stroke-opacity:1;paint-order:stroke fill markers"
         x="-39.997337"
         y="90.640335"
         id="text5165"><tspan
           sodipodi:role="line"
           id="tspan5163"
           x="-39.997337"
           y="90.640335"
           style="font-style:normal;font-variant:normal;font-weight:bold;font-stretch:normal;font-size:3.52777767px;font-family:Arial;-inkscape-font-specification:'Arial Bold';stroke:#ffffff;stroke-width:0.79374999;stroke-linecap:round;stroke-linejoin:round;stroke-miterlimit:4;stroke-dasharray:none;stroke-opacity:1;paint-order:stroke fill markers">E</tspan></text>
    </g>
    <path
       style="fill:#212178;stroke-width:0.77241379"
       d="M 2.8574219 348.57227 L 2.8574219 412.57227 L 66.857422 412.57227 L 130.85742 412.57227 L 130.85742 476.57227 L 194.85742 476.57227 L 194.85742 412.57227 L 194.85742 348.57227 L 130.85742 348.57227 L 66.857422 348.57227 L 2.8574219 348.57227 z "
       transform="matrix(0.26458333,0,0,0.26458333,0,26.06671)"
       id="rect5169"
       inkscape:export-xdpi="96"
       inkscape:export-ydpi="96" />
    <g
       id="g5183"
       transform="translate(41.652974,37.381852)"
       inkscape:export-xdpi="96"
       inkscape:export-ydpi="96">
      <rect
         style="fill:#00ff00;stroke-width:0.29934186"
         id="rect5177"
         width="4.2333331"
         height="4.2333331"
         x="-40.897022"
         y="87.26104" />
      <text
         xml:space="preserve"
         style="font-style:normal;font-variant:normal;font-weight:bold;font-stretch:normal;font-size:3.52777767px;line-height:1.25;font-family:Arial;-inkscape-font-specification:'Arial Bold';letter-spacing:0px;word-spacing:0px;fill:#000000;fill-opacity:1;stroke:#ffffff;stroke-width:0.79374999;stroke-linecap:round;stroke-linejoin:round;stroke-miterlimit:4;stroke-dasharray:none;stroke-opacity:1;paint-order:stroke fill markers"
         x="-39.997337"
         y="90.640335"
         id="text5181"><tspan
           sodipodi:role="line"
           id="tspan5179"
           x="-39.997337"
           y="90.640335"
           style="font-style:normal;font-variant:normal;font-weight:bold;font-stretch:normal;font-size:3.52777767px;font-family:Arial;-inkscape-font-specification:'Arial Bold';stroke:#ffffff;stroke-width:0.79374999;stroke-linecap:round;stroke-linejoin:round;stroke-miterlimit:4;stroke-dasharray:none;stroke-opacity:1;paint-order:stroke fill markers">E</tspan></text>
    </g>
    <g
       id="g5191"
       transform="translate(81.869642,64.898516)"
       inkscape:export-xdpi="96"
       inkscape:export-ydpi="96">
      <rect
         y="83.02771"
         x="-40.897022"
         height="4.2333331"
         width="4.2333331"
         id="rect5185"
         style="fill:#ff0000;stroke-width:0.29934186" />
      <text
         xml:space="preserve"
         style="font-style:normal;font-variant:normal;font-weight:bold;font-stretch:normal;font-size:3.52777767px;line-height:1.25;font-family:Arial;-inkscape-font-specification:'Arial Bold';letter-spacing:0px;word-spacing:0px;fill:#000000;fill-opacity:1;stroke:#ffffff;stroke-width:0.79374999;stroke-linecap:round;stroke-linejoin:round;stroke-miterlimit:4;stroke-dasharray:none;stroke-opacity:1;paint-order:stroke fill markers"
         x="-39.934464"
         y="86.406143"
         id="text5189"><tspan
           sodipodi:role="line"
           id="tspan5187"
           x="-39.934464"
           y="86.406143"
           style="font-style:normal;font-variant:normal;font-weight:bold;font-stretch:normal;font-size:3.52777767px;font-family:Arial;-inkscape-font-specification:'Arial Bold';stroke:#ffffff;stroke-width:0.79374999;stroke-linecap:round;stroke-linejoin:round;stroke-miterlimit:4;stroke-dasharray:none;stroke-opacity:1;paint-order:stroke fill markers">S</tspan></text>
    </g>
    <path
       style="fill:#5d536c;stroke-width:0.20436782"
       d="m 51.555951,118.29289 v 16.93333 h 16.933333 v 16.93334 H 85.422617 V 135.22622 118.29289 H 68.489284 Z"
       id="rect5196"
       inkscape:connector-curvature="0"
       inkscape:export-xdpi="96"
       inkscape:export-ydpi="96" />
    <g
       transform="translate(115.73638,64.898745)"
       id="g5208"
       inkscape:export-xdpi="96"
       inkscape:export-ydpi="96">
      <rect
         style="fill:#ff0000;stroke-width:0.29934186"
         id="rect5202"
         width="4.2333331"
         height="4.2333331"
         x="-40.897022"
         y="83.02771" />
      <text
         id="text5206"
         y="86.406143"
         x="-39.934464"
         style="font-style:normal;font-variant:normal;font-weight:bold;font-stretch:normal;font-size:3.52777767px;line-height:1.25;font-family:Arial;-inkscape-font-specification:'Arial Bold';letter-spacing:0px;word-spacing:0px;fill:#000000;fill-opacity:1;stroke:#ffffff;stroke-width:0.79374999;stroke-linecap:round;stroke-linejoin:round;stroke-miterlimit:4;stroke-dasharray:none;stroke-opacity:1;paint-order:stroke fill markers"
         xml:space="preserve"><tspan
           style="font-style:normal;font-variant:normal;font-weight:bold;font-stretch:normal;font-size:3.52777767px;font-family:Arial;-inkscape-font-specification:'Arial Bold';stroke:#ffffff;stroke-width:0.79374999;stroke-linecap:round;stroke-linejoin:round;stroke-miterlimit:4;stroke-dasharray:none;stroke-opacity:1;paint-order:stroke fill markers"
           y="86.406143"
           x="-39.934464"
           id="tspan5204"
           sodipodi:role="line">S</tspan></text>
    </g>
    <g
       id="g5216"
       transform="translate(98.803048,39.498741)"
       inkscape:export-xdpi="96"
       inkscape:export-ydpi="96">
      <rect
         style="fill:#00ffff;stroke-width:0.29934186"
         id="rect5210"
         width="4.2333331"
         height="4.2333331"
         x="-40.897022"
         y="78.79438" />
      <text
         xml:space="preserve"
         style="font-style:normal;font-variant:normal;font-weight:bold;font-stretch:normal;font-size:3.52777767px;line-height:1.25;font-family:Arial;-inkscape-font-specification:'Arial Bold';letter-spacing:0px;word-spacing:0px;fill:#000000;fill-opacity:1;stroke:#ffffff;stroke-width:0.79374999;stroke-linecap:round;stroke-linejoin:round;stroke-miterlimit:4;stroke-dasharray:none;stroke-opacity:1;paint-order:stroke fill markers"
         x="-40.043846"
         y="82.173676"
         id="text5214"><tspan
           sodipodi:role="line"
           id="tspan5212"
           x="-40.043846"
           y="82.173676"
           style="font-style:normal;font-variant:normal;font-weight:bold;font-stretch:normal;font-size:3.52777767px;font-family:Arial;-inkscape-font-specification:'Arial Bold';stroke:#ffffff;stroke-width:0.79374999;stroke-linecap:round;stroke-linejoin:round;stroke-miterlimit:4;stroke-dasharray:none;stroke-opacity:1;paint-order:stroke fill markers">N</tspan></text>
    </g>
    <g
       id="g5227"
       transform="translate(122.08638,37.382081)"
       inkscape:export-xdpi="96"
       inkscape:export-ydpi="96">
      <rect
         style="fill:#00ff00;stroke-width:0.29934186"
         id="rect5221"
         width="4.2333331"
         height="4.2333331"
         x="-40.897022"
         y="87.26104" />
      <text
         xml:space="preserve"
         style="font-style:normal;font-variant:normal;font-weight:bold;font-stretch:normal;font-size:3.52777767px;line-height:1.25;font-family:Arial;-inkscape-font-specification:'Arial Bold';letter-spacing:0px;word-spacing:0px;fill:#000000;fill-opacity:1;stroke:#ffffff;stroke-width:0.79374999;stroke-linecap:round;stroke-linejoin:round;stroke-miterlimit:4;stroke-dasharray:none;stroke-opacity:1;paint-order:stroke fill markers"
         x="-39.997337"
         y="90.640335"
         id="text5225"><tspan
           sodipodi:role="line"
           id="tspan5223"
           x="-39.997337"
           y="90.640335"
           style="font-style:normal;font-variant:normal;font-weight:bold;font-stretch:normal;font-size:3.52777767px;font-family:Arial;-inkscape-font-specification:'Arial Bold';stroke:#ffffff;stroke-width:0.79374999;stroke-linecap:round;stroke-linejoin:round;stroke-miterlimit:4;stroke-dasharray:none;stroke-opacity:1;paint-order:stroke fill markers">E</tspan></text>
    </g>
    <g
       transform="translate(64.936307,5.6318436)"
       id="g5235"
       inkscape:export-xdpi="96"
       inkscape:export-ydpi="96">
      <rect
         y="78.79438"
         x="-40.897022"
         height="4.2333331"
         width="4.2333331"
         id="rect5229"
         style="fill:#00ffff;stroke-width:0.29934186" />
      <text
         id="text5233"
         y="82.173676"
         x="-40.043846"
         style="font-style:normal;font-variant:normal;font-weight:bold;font-stretch:normal;font-size:3.52777767px;line-height:1.25;font-family:Arial;-inkscape-font-specification:'Arial Bold';letter-spacing:0px;word-spacing:0px;fill:#000000;fill-opacity:1;stroke:#ffffff;stroke-width:0.79374999;stroke-linecap:round;stroke-linejoin:round;stroke-miterlimit:4;stroke-dasharray:none;stroke-opacity:1;paint-order:stroke fill markers"
         xml:space="preserve"><tspan
           style="font-style:normal;font-variant:normal;font-weight:bold;font-stretch:normal;font-size:3.52777767px;font-family:Arial;-inkscape-font-specification:'Arial Bold';stroke:#ffffff;stroke-width:0.79374999;stroke-linecap:round;stroke-linejoin:round;stroke-miterlimit:4;stroke-dasharray:none;stroke-opacity:1;paint-order:stroke fill markers"
           y="82.173676"
           x="-40.043846"
           id="tspan5231"
           sodipodi:role="line">N</tspan></text>
    </g>
  </g>
</svg>
